…
## Reference

I referred to Julia Silge’s excellent
[tutorial](https://www.youtube.com/watch?v=0WCmLYvfHMw&list=LL-xYEpkLu4daSJnUSohR-pw&index=2&t=0s)
on building multiclass classifiers with tidymodels.

### Explore the data

``` r
volcano %>% 
  count(primary_volcano_type, sort = TRUE)
```

    ## # A tibble: 26 x 2
    ##    primary_volcano_type     n
    ##    <chr>                <int>
    ##  1 Stratovolcano          353
    ##  2 Stratovolcano(es)      107
    ##  3 Shield                  85
    ##  4 Volcanic field          71
    ##  5 Pyroclastic cone(s)     70
    ##  6 Caldera                 65
    ##  7 Complex                 46
    ##  8 Shield(s)               33
    ##  9 Submarine               27
    ## 10 Lava dome(s)            26
    ## # … with 16 more rows
…
volcano_prep <-
  volcano_rec %>% 
  prep()
```

To look at the results from a recipe, we can `juice` from it.

``` r
juice(volcano_prep)
```

    ## # A tibble: 1,383 x 14
    ##    volcano_number latitude longitude elevation volcano_type tectonic_settin…
    ##             <dbl>    <dbl>     <dbl>     <dbl> <fct>                   <dbl>
    ##  1         213004   0.746      0.101   -0.131  Other                  -0.289
    ##  2         284141   0.172      1.11    -1.39   Other                  -0.289
    ##  3         282080   0.526      0.975   -0.535  Other                  -0.289
    ##  4         285070   0.899      1.10    -0.263  Other                  -0.289
    ##  5         320020   1.44      -1.45     0.250  Other                  -0.289
    ##  6         221060  -0.0377     0.155   -0.920  Other                  -0.289
    ##  7         273088   0.0739     0.888    0.330  Other                  -0.289
    ##  8         266020  -0.451      0.918   -0.0514 Other                  -0.289
    ##  9         233011  -0.873      0.233   -0.280  Other                  -0.289
    ## 10         257040  -0.989      1.32    -0.380  Other                  -0.289
    ## # … with 1,373 more rows, and 8 more variables:
    ## #   tectonic_settings_Rift.zone...Oceanic.crust....15.km. <dbl>,
    ## #   tectonic_settings_Subduction.zone...Continental.crust...25.km. <dbl>,
    ## #   tectonic_settings_Subduction.zone...Oceanic.crust....15.km. <dbl>,
    ## #   tectonic_settings_other <dbl>, major_rock_1_Basalt...Picro.Basalt <dbl>,
    ## #   major_rock_1_Dacite <dbl>,
    ## #   major_rock_1_Trachybasalt...Tephrite.Basanite <dbl>,
    ## #   major_rock_1_other <dbl>
…
